…
``` r
All_FOO %>% group_by(Species) %>% 
  summarise(mean = mean(FOO))  %>% 
  arrange(-mean)
```

    ## # A tibble: 29 × 2
    ##    Species                   mean
    ##    <fct>                    <dbl>
    ##  1 Atlantic herring         83.0 
    ##  2 White hake               34.1 
    ##  3 Sandlance sp             24.0 
    ##  4 Pollock                  13.6 
    ##  5 Fourbeard rockling       10.5 
    ##  6 River herring             5.84
    ##  7 Haddock                   5.31
    ##  8 Three spined stickleback  4.11
    ##  9 Atlantic butterfish       4.09
    ## 10 Spotted codling           1.70
    ## # … with 19 more rows
